<?xml version="1.0" encoding="utf-8"?>
<!-- Generator: Adobe Illustrator 24.1.0, SVG Export Plug-In . SVG Version: 6.00 Build 0)  -->
<svg version="1.1" id="Layer_1" xmlns="http://www.w3.org/2000/svg" xmlns:xlink="http://www.w3.org/1999/xlink" x="0px" y="0px"
	 viewBox="0 0 68.4 68.6" style="enable-background:new 0 0 68.4 68.6;" xml:space="preserve">
<style type="text/css">
	.st0{fill:url(#SVGID_1_);}
	.st1{fill:url(#SVGID_2_);}
	.st2{fill:url(#SVGID_3_);}
	.st3{fill:url(#SVGID_4_);}
	.st4{fill:url(#SVGID_5_);}
	.st5{fill:url(#SVGID_6_);}
	.st6{fill:url(#SVGID_7_);}
</style>
<g>
	
		<linearGradient id="SVGID_1_" gradientUnits="userSpaceOnUse" x1="34.1928" y1="256.64" x2="34.1928" y2="188.0413" gradientTransform="matrix(1 0 0 -1 0 256.64)">
		<stop  offset="0" style="stop-color:#FFE769"/>
		<stop  offset="0.46" style="stop-color:#FFE667"/>
		<stop  offset="0.62" style="stop-color:#FFE060"/>
		<stop  offset="0.74" style="stop-color:#FFD755"/>
		<stop  offset="0.83" style="stop-color:#FFC944"/>
		<stop  offset="0.91" style="stop-color:#FFB82E"/>
		<stop  offset="0.98" style="stop-color:#FFA313"/>
		<stop  offset="1" style="stop-color:#FF9D0C"/>
	</linearGradient>
	<path class="st0" d="M65.5,20.6c-0.2-0.5-0.5-1.1-0.7-1.6c-3.3-6.6-8.6-12-15.2-15.2c-0.5-0.2-1-0.5-1.5-0.7l-0.8-0.4h-0.1
		C46.4,2.3,45.7,2,45,1.8c-7-2.4-14.6-2.4-21.6,0c-1.1,0.4-2.2,0.8-3.3,1.3l-0.7,0.3c-0.4,0.2-0.9,0.4-1.4,0.7l-1.4,0.8l-0.5,0.3
		C9,9.5,3.6,16.5,1.3,24.6v0.1c-0.2,0.7-0.4,1.5-0.6,2.2c0,0.2-0.1,0.3-0.1,0.5c-0.1,0.7-0.3,1.3-0.4,2c0,0.2-0.1,0.4-0.1,0.7
		C0.1,30.7,0,31.4,0,32c0,0.1,0,0.3,0,0.4s0,0.3,0,0.4s0,0.5,0,0.7c0,0.2,0,0.2,0,0.3c-0.1,5.2,1,10.4,3.2,15.2
		c2.9,6,7.4,11,13,14.5l0.2,0.1l0.7,0.4l0.9,0.5l0.2,0.1c1.4,0.8,2.9,1.4,4.4,2c8,2.8,16.8,2.5,24.6-0.7c0.3-0.1,0.7-0.3,0.9-0.6
		c3.1-1.4,6-3.2,8.5-5.4c0.6-0.5,1.1-1,1.6-1.5c0.1-0.1,0.3-0.2,0.4-0.3c0.4-0.5,0.9-0.9,1.3-1.4c4-4.6,6.7-10.2,7.8-16.3
		c0-0.2,0.1-0.5,0.1-0.7c0.2-1.1,0.3-2.2,0.4-3.3C68.7,31,67.7,25.6,65.5,20.6z"/>
	
		<linearGradient id="SVGID_2_" gradientUnits="userSpaceOnUse" x1="34.1196" y1="209.3614" x2="34.1196" y2="202.4014" gradientTransform="matrix(1 0 0 -1 0 256.64)">
		<stop  offset="0" style="stop-color:#720C00"/>
		<stop  offset="0.24" style="stop-color:#670D00"/>
		<stop  offset="0.65" style="stop-color:#4B0E00"/>
		<stop  offset="1" style="stop-color:#2D1000"/>
	</linearGradient>
	<path class="st1" d="M40.1,48.9c-1.8-1.1-3.9-1.6-6.1-1.6l0,0c-2,0-3.9,0.5-5.6,1.4c-1.1,0.6-3.5,2.1-3.5,3.5c-0.1,1,0.6,1.9,1.6,2
		c0,0,0,0,0.1,0c0.3,0,0.5,0,0.8-0.1c0.9-0.6,1.8-1.2,2.6-2c1.2-0.8,2.5-1.2,3.9-1.3c2.9-0.2,4.7,1.8,6.9,3.2c0.9,0.4,2,0,2.4-0.8
		c0.1-0.2,0.2-0.4,0.2-0.7C43.2,50.8,41.4,49.7,40.1,48.9z"/>
	
		<linearGradient id="SVGID_3_" gradientUnits="userSpaceOnUse" x1="48.1127" y1="224.6414" x2="48.1127" y2="215.1065" gradientTransform="matrix(1 0 0 -1 0 256.64)">
		<stop  offset="0" style="stop-color:#2C2B57"/>
		<stop  offset="0.42" style="stop-color:#242748"/>
		<stop  offset="1" style="stop-color:#1B2338"/>
	</linearGradient>
	<path class="st2" d="M48.1,32c-2.5,0.1-4.4,2.1-4.3,4.6c0,0,0,0,0,0v0.1c-0.1,2.5,1.8,4.6,4.2,4.8c2.8,0.2,4.5-2.7,4.4-5.1
		C52.4,34,50.5,32.1,48.1,32z"/>
	
		<linearGradient id="SVGID_4_" gradientUnits="userSpaceOnUse" x1="20.1367" y1="224.6414" x2="20.1367" y2="215.1014" gradientTransform="matrix(1 0 0 -1 0 256.64)">
		<stop  offset="0" style="stop-color:#2C2B57"/>
		<stop  offset="0.42" style="stop-color:#242748"/>
		<stop  offset="1" style="stop-color:#1B2338"/>
	</linearGradient>
	<path class="st3" d="M20.1,32c-2.5,0.1-4.4,2.3-4.2,4.8l0,0c-0.1,2.5,1.8,4.6,4.3,4.8c2.8,0.2,4.4-2.8,4.3-5.2
		C24.4,33.9,22.4,32,20.1,32z"/>
	
		<linearGradient id="SVGID_5_" gradientUnits="userSpaceOnUse" x1="44.6844" y1="228.11" x2="55.5144" y2="228.11" gradientTransform="matrix(1 0 0 -1 0 256.64)">
		<stop  offset="0" style="stop-color:#EC7906"/>
		<stop  offset="0.42" style="stop-color:#E87507"/>
		<stop  offset="0.8" style="stop-color:#DD6B0A"/>
		<stop  offset="1" style="stop-color:#D4620C"/>
	</linearGradient>
	<path class="st4" d="M55.2,29.2C53.7,26.6,51,25,48,24.9l0,0c-1.1-0.1-2.1,0.3-2.9,1c-0.5,0.7-0.4,1.6,0.1,2.3
		c0.9,0.8,2,0.5,3.1,0.5c2.1,0,3.1,1.6,4.2,3c0.6,0.7,1.6,0.8,2.2,0.2C55.6,31.2,55.8,30.1,55.2,29.2C55.2,29.2,55.2,29.2,55.2,29.2
		z"/>
	
		<linearGradient id="SVGID_6_" gradientUnits="userSpaceOnUse" x1="23.4407" y1="228.2174" x2="12.7474" y2="228.2174" gradientTransform="matrix(1 0 0 -1 0 256.64)">
		<stop  offset="0" style="stop-color:#EC7906"/>
		<stop  offset="0.42" style="stop-color:#E87507"/>
		<stop  offset="0.8" style="stop-color:#DD6B0A"/>
		<stop  offset="1" style="stop-color:#D4620C"/>
	</linearGradient>
	<path class="st5" d="M15.9,31.5c0.6-0.8,1.2-1.5,1.8-2.1c0.8-0.5,1.8-0.8,2.8-0.8c0.9,0.4,1.9,0.2,2.5-0.5c0.5-0.7,0.5-1.6-0.1-2.3
		c-1.8-1.7-5.4-0.6-7.2,0.5c-1.2,0.8-4.5,3.8-2.5,5.3c0.7,0.7,1.7,0.7,2.4,0L15.9,31.5z"/>
	
		<linearGradient id="SVGID_7_" gradientUnits="userSpaceOnUse" x1="52.4944" y1="188.7814" x2="52.4944" y2="207.1493" gradientTransform="matrix(1 0 0 -1 0 256.64)">
		<stop  offset="0" style="stop-color:#2ED7FF"/>
		<stop  offset="0.21" style="stop-color:#27BEFE"/>
		<stop  offset="0.65" style="stop-color:#147EFB"/>
		<stop  offset="0.86" style="stop-color:#0B5FF9"/>
	</linearGradient>
	<path class="st6" d="M47,62.4c0,3,2.5,5.5,5.5,5.5c3-0.1,5.4-2.5,5.5-5.5c0-1.7-1.9-6.5-4.7-12.4c-0.2-0.4-0.8-0.6-1.2-0.4
		c-0.2,0.1-0.3,0.2-0.4,0.4C48.8,55.9,47,60.7,47,62.4z"/>
</g>
</svg>
