<?xml version="1.0" encoding="utf-8"?>
<!-- Generator: Adobe Illustrator 24.1.0, SVG Export Plug-In . SVG Version: 6.00 Build 0)  -->
<svg version="1.1" id="Layer_1" xmlns="http://www.w3.org/2000/svg" xmlns:xlink="http://www.w3.org/1999/xlink" x="0px" y="0px"
	 viewBox="0 0 95.1 95.1" style="enable-background:new 0 0 95.1 95.1;" xml:space="preserve">
<style type="text/css">
	.st0{fill:#AFB7C4;}
</style>
<g>
	<path class="st0" d="M81.3,55.5v25.2c0,5.8-4.8,10.6-10.6,10.6H14.5c-5.9,0-10.6-4.8-10.6-10.6V24.4c0-5.8,4.8-10.6,10.6-10.6h25.2
		c1.2,0,1.9-1,1.9-1.9c0-0.9-0.6-1.9-1.9-1.9l-25.2,0C6.5,10,0,16.5,0,24.4v56.2c0,8,6.5,14.4,14.5,14.4h56.2
		c8,0,14.4-6.5,14.4-14.4V55.5C85.1,53,81.3,53,81.3,55.5z"/>
	<path class="st0" d="M95.1,2.1c0-0.6-0.2-1.1-0.6-1.5C94.1,0.2,93.6,0,93.1,0H65.5c-1.2,0-1.9,1-1.9,1.9s0.6,1.9,1.9,1.9h23.1
		L38.4,54c-0.5,0.5-0.7,1.1-0.5,1.8c0.2,0.7,0.8,1.3,1.4,1.4c0.2,0,0.3,0.1,0.5,0.1c0.5,0,0.9-0.2,1.3-0.6L91.3,6.5l0,23.1
		c0,2.5,3.8,2.5,3.8,0L95.1,2.1z"/>
</g>
</svg>
